<mxfile host="app.diagrams.net" modified="2023-06-16T17:02:04.235Z" agent="Mozilla/5.0 (X11; Ubuntu; Linux x86_64; rv:109.0) Gecko/20100101 Firefox/114.0" etag="OchG-F-tgeZGAwQN9zul" version="21.4.0" type="gitlab">
  <diagram name="Page-1" id="e7e014a7-5840-1c2e-5031-d8a46d1fe8dd">
    <mxGraphModel dx="1393" dy="733" grid="1" gridSize="10" guides="1" tooltips="1" connect="1" arrows="1" fold="1" page="1" pageScale="1" pageWidth="1169" pageHeight="826" background="none" math="0" shadow="0">
      <root>
        <mxCell id="0" />
        <mxCell id="1" parent="0" />
        <mxCell id="2" value="Archean" style="swimlane;whiteSpace=wrap" parent="1" vertex="1">
          <mxGeometry x="30" y="120" width="410" height="578" as="geometry" />
        </mxCell>
        <mxCell id="5" value="" style="ellipse;shape=startState;fillColor=#000000;strokeColor=#ff0000;" parent="2" vertex="1">
          <mxGeometry x="100" y="40" width="30" height="30" as="geometry" />
        </mxCell>
        <mxCell id="6" value="" style="edgeStyle=elbowEdgeStyle;elbow=horizontal;verticalAlign=bottom;endArrow=open;endSize=8;strokeColor=#FF0000;endFill=1;rounded=0" parent="2" source="5" edge="1">
          <mxGeometry x="100" y="40" as="geometry">
            <mxPoint x="115.5" y="110" as="targetPoint" />
          </mxGeometry>
        </mxCell>
        <mxCell id="LhoEhV5BhQbCUo2uiRQP-50" style="edgeStyle=orthogonalEdgeStyle;rounded=0;orthogonalLoop=1;jettySize=auto;html=1;entryX=0.727;entryY=0.342;entryDx=0;entryDy=0;entryPerimeter=0;fillColor=#e51400;strokeColor=#B20000;" parent="2" source="8" target="LhoEhV5BhQbCUo2uiRQP-44" edge="1">
          <mxGeometry relative="1" as="geometry" />
        </mxCell>
        <mxCell id="8" value="embaralha inunda" style="rounded=1;glass=0;fillColor=#ffffc0;strokeColor=#ff0000;fontColor=#000000;arcSize=40;" parent="2" vertex="1">
          <mxGeometry x="60.5" y="154" width="110" height="26" as="geometry" />
        </mxCell>
        <mxCell id="LhoEhV5BhQbCUo2uiRQP-72" style="edgeStyle=orthogonalEdgeStyle;rounded=0;orthogonalLoop=1;jettySize=auto;html=1;exitX=1;exitY=0.5;exitDx=0;exitDy=0;fillColor=#e51400;strokeColor=#B20000;" parent="2" source="10" edge="1">
          <mxGeometry relative="1" as="geometry">
            <Array as="points">
              <mxPoint x="210" y="467" />
              <mxPoint x="210" y="520" />
              <mxPoint x="391" y="520" />
            </Array>
            <mxPoint x="390" y="520" as="targetPoint" />
          </mxGeometry>
        </mxCell>
        <mxCell id="10" value="nivelar oceano" style="fillColor=#ffffc0;strokeColor=#ff0000;fontColor=#000000;rounded=1;arcSize=40;" parent="2" vertex="1">
          <mxGeometry x="60.5" y="454" width="110" height="26" as="geometry" />
        </mxCell>
        <mxCell id="XigUQlJKF5RZl9a24wY--43" value="" style="edgeStyle=orthogonalEdgeStyle;rounded=0;orthogonalLoop=1;jettySize=auto;html=1;fillColor=#e51400;strokeColor=#B20000;" parent="2" source="XigUQlJKF5RZl9a24wY--41" target="8" edge="1">
          <mxGeometry relative="1" as="geometry" />
        </mxCell>
        <mxCell id="XigUQlJKF5RZl9a24wY--46" style="edgeStyle=orthogonalEdgeStyle;rounded=0;orthogonalLoop=1;jettySize=auto;html=1;entryX=0;entryY=0.5;entryDx=0;entryDy=0;fillColor=#e51400;strokeColor=#B20000;" parent="2" source="XigUQlJKF5RZl9a24wY--41" target="XigUQlJKF5RZl9a24wY--44" edge="1">
          <mxGeometry relative="1" as="geometry">
            <Array as="points">
              <mxPoint x="46" y="227" />
            </Array>
          </mxGeometry>
        </mxCell>
        <mxCell id="XigUQlJKF5RZl9a24wY--47" style="edgeStyle=orthogonalEdgeStyle;rounded=0;orthogonalLoop=1;jettySize=auto;html=1;entryX=0;entryY=0.5;entryDx=0;entryDy=0;fillColor=#e51400;strokeColor=#B20000;" parent="2" source="XigUQlJKF5RZl9a24wY--41" target="LhoEhV5BhQbCUo2uiRQP-54" edge="1">
          <mxGeometry relative="1" as="geometry">
            <Array as="points">
              <mxPoint x="40" y="347" />
            </Array>
          </mxGeometry>
        </mxCell>
        <mxCell id="LhoEhV5BhQbCUo2uiRQP-57" style="edgeStyle=orthogonalEdgeStyle;rounded=0;orthogonalLoop=1;jettySize=auto;html=1;entryX=-0.003;entryY=0.592;entryDx=0;entryDy=0;entryPerimeter=0;fillColor=#e51400;strokeColor=#B20000;" parent="2" source="XigUQlJKF5RZl9a24wY--41" target="XigUQlJKF5RZl9a24wY--45" edge="1">
          <mxGeometry relative="1" as="geometry">
            <Array as="points">
              <mxPoint x="30" y="410" />
              <mxPoint x="60" y="410" />
            </Array>
          </mxGeometry>
        </mxCell>
        <mxCell id="LhoEhV5BhQbCUo2uiRQP-68" style="edgeStyle=orthogonalEdgeStyle;rounded=0;orthogonalLoop=1;jettySize=auto;html=1;entryX=0.011;entryY=0.592;entryDx=0;entryDy=0;entryPerimeter=0;fillColor=#e51400;strokeColor=#B20000;" parent="2" source="XigUQlJKF5RZl9a24wY--41" target="10" edge="1">
          <mxGeometry relative="1" as="geometry">
            <Array as="points">
              <mxPoint x="20" y="469" />
              <mxPoint x="62" y="469" />
            </Array>
          </mxGeometry>
        </mxCell>
        <mxCell id="LhoEhV5BhQbCUo2uiRQP-69" style="edgeStyle=orthogonalEdgeStyle;rounded=0;orthogonalLoop=1;jettySize=auto;html=1;exitX=0;exitY=0.5;exitDx=0;exitDy=0;exitPerimeter=0;entryX=-0.035;entryY=0.406;entryDx=0;entryDy=0;entryPerimeter=0;fillColor=#e51400;strokeColor=#B20000;" parent="2" source="XigUQlJKF5RZl9a24wY--41" target="XigUQlJKF5RZl9a24wY--48" edge="1">
          <mxGeometry relative="1" as="geometry">
            <Array as="points">
              <mxPoint x="10" y="115" />
              <mxPoint x="10" y="535" />
              <mxPoint x="56" y="535" />
            </Array>
          </mxGeometry>
        </mxCell>
        <mxCell id="XigUQlJKF5RZl9a24wY--41" value="" style="shape=line;html=1;strokeWidth=6;strokeColor=#ff0000;" parent="2" vertex="1">
          <mxGeometry x="15.5" y="110" width="200" height="10" as="geometry" />
        </mxCell>
        <mxCell id="LhoEhV5BhQbCUo2uiRQP-65" style="edgeStyle=orthogonalEdgeStyle;rounded=0;orthogonalLoop=1;jettySize=auto;html=1;exitX=1;exitY=0.75;exitDx=0;exitDy=0;entryX=0.673;entryY=0.475;entryDx=0;entryDy=0;entryPerimeter=0;fillColor=#e51400;strokeColor=#B20000;" parent="2" source="XigUQlJKF5RZl9a24wY--44" target="LhoEhV5BhQbCUo2uiRQP-61" edge="1">
          <mxGeometry relative="1" as="geometry" />
        </mxCell>
        <mxCell id="LhoEhV5BhQbCUo2uiRQP-74" style="edgeStyle=orthogonalEdgeStyle;rounded=0;orthogonalLoop=1;jettySize=auto;html=1;exitX=1;exitY=0.25;exitDx=0;exitDy=0;entryX=0.25;entryY=0.5;entryDx=0;entryDy=0;entryPerimeter=0;fillColor=#e51400;strokeColor=#B20000;" parent="2" source="XigUQlJKF5RZl9a24wY--44" target="LhoEhV5BhQbCUo2uiRQP-44" edge="1">
          <mxGeometry relative="1" as="geometry">
            <Array as="points">
              <mxPoint x="190" y="214" />
              <mxPoint x="190" y="184" />
              <mxPoint x="207" y="184" />
            </Array>
          </mxGeometry>
        </mxCell>
        <mxCell id="XigUQlJKF5RZl9a24wY--44" value="posiciona terrenos" style="fillColor=#ffffc0;strokeColor=#ff0000;fontColor=#000000;rounded=1;arcSize=40;" parent="2" vertex="1">
          <mxGeometry x="60" y="214" width="110" height="26" as="geometry" />
        </mxCell>
        <mxCell id="LhoEhV5BhQbCUo2uiRQP-67" style="edgeStyle=orthogonalEdgeStyle;rounded=0;orthogonalLoop=1;jettySize=auto;html=1;exitX=1;exitY=0.5;exitDx=0;exitDy=0;entryX=0;entryY=0.5;entryDx=0;entryDy=0;fillColor=#e51400;strokeColor=#B20000;" parent="2" source="XigUQlJKF5RZl9a24wY--45" target="LhoEhV5BhQbCUo2uiRQP-66" edge="1">
          <mxGeometry relative="1" as="geometry">
            <Array as="points">
              <mxPoint x="210" y="407" />
              <mxPoint x="210" y="287" />
            </Array>
          </mxGeometry>
        </mxCell>
        <mxCell id="XigUQlJKF5RZl9a24wY--45" value="embaralha tesouro" style="fillColor=#ffffc0;strokeColor=#ff0000;fontColor=#000000;rounded=1;arcSize=40;" parent="2" vertex="1">
          <mxGeometry x="60" y="394" width="110" height="26" as="geometry" />
        </mxCell>
        <mxCell id="LhoEhV5BhQbCUo2uiRQP-71" style="edgeStyle=orthogonalEdgeStyle;rounded=0;orthogonalLoop=1;jettySize=auto;html=1;fillColor=#e51400;strokeColor=#B20000;" parent="2" source="XigUQlJKF5RZl9a24wY--48" edge="1">
          <mxGeometry relative="1" as="geometry">
            <mxPoint x="390" y="537" as="targetPoint" />
          </mxGeometry>
        </mxCell>
        <mxCell id="XigUQlJKF5RZl9a24wY--48" value="colocar estatuetas" style="fillColor=#ffffc0;strokeColor=#ff0000;fontColor=#000000;rounded=1;arcSize=40;" parent="2" vertex="1">
          <mxGeometry x="60" y="524" width="110" height="26" as="geometry" />
        </mxCell>
        <mxCell id="LhoEhV5BhQbCUo2uiRQP-52" value="" style="edgeStyle=orthogonalEdgeStyle;rounded=0;orthogonalLoop=1;jettySize=auto;html=1;entryX=0;entryY=0.5;entryDx=0;entryDy=0;fillColor=#e51400;strokeColor=#B20000;" parent="2" source="LhoEhV5BhQbCUo2uiRQP-44" target="LhoEhV5BhQbCUo2uiRQP-53" edge="1">
          <mxGeometry relative="1" as="geometry">
            <mxPoint x="250" y="197" as="targetPoint" />
          </mxGeometry>
        </mxCell>
        <mxCell id="LhoEhV5BhQbCUo2uiRQP-44" value="" style="shape=line;html=1;strokeWidth=6;strokeColor=#B20000;rotation=-90;fillColor=#e51400;fontColor=#ffffff;" parent="2" vertex="1">
          <mxGeometry x="174.19" y="162" width="66.12" height="10" as="geometry" />
        </mxCell>
        <mxCell id="LhoEhV5BhQbCUo2uiRQP-79" style="edgeStyle=orthogonalEdgeStyle;rounded=0;orthogonalLoop=1;jettySize=auto;html=1;entryX=0.97;entryY=0.283;entryDx=0;entryDy=0;entryPerimeter=0;fillColor=#e51400;strokeColor=#B20000;" parent="2" source="LhoEhV5BhQbCUo2uiRQP-53" target="LhoEhV5BhQbCUo2uiRQP-70" edge="1">
          <mxGeometry relative="1" as="geometry" />
        </mxCell>
        <mxCell id="LhoEhV5BhQbCUo2uiRQP-53" value="alagar terrenos" style="fillColor=#ffffc0;strokeColor=#ff0000;fontColor=#000000;rounded=1;arcSize=40;" parent="2" vertex="1">
          <mxGeometry x="250" y="154" width="110" height="26" as="geometry" />
        </mxCell>
        <mxCell id="LhoEhV5BhQbCUo2uiRQP-60" style="edgeStyle=orthogonalEdgeStyle;rounded=0;orthogonalLoop=1;jettySize=auto;html=1;exitX=1;exitY=0.5;exitDx=0;exitDy=0;entryX=1;entryY=0.75;entryDx=0;entryDy=0;fillColor=#e51400;strokeColor=#B20000;" parent="2" source="LhoEhV5BhQbCUo2uiRQP-54" target="LhoEhV5BhQbCUo2uiRQP-55" edge="1">
          <mxGeometry relative="1" as="geometry">
            <Array as="points">
              <mxPoint x="190" y="347" />
              <mxPoint x="190" y="293" />
              <mxPoint x="170" y="293" />
            </Array>
          </mxGeometry>
        </mxCell>
        <mxCell id="LhoEhV5BhQbCUo2uiRQP-54" value="embaralha papeis" style="fillColor=#ffffc0;strokeColor=#ff0000;fontColor=#000000;rounded=1;arcSize=40;" parent="2" vertex="1">
          <mxGeometry x="60" y="334" width="110" height="26" as="geometry" />
        </mxCell>
        <mxCell id="LhoEhV5BhQbCUo2uiRQP-63" style="edgeStyle=orthogonalEdgeStyle;rounded=0;orthogonalLoop=1;jettySize=auto;html=1;exitX=1;exitY=0.25;exitDx=0;exitDy=0;entryX=0.414;entryY=0.316;entryDx=0;entryDy=0;entryPerimeter=0;fillColor=#e51400;strokeColor=#B20000;" parent="2" source="LhoEhV5BhQbCUo2uiRQP-55" target="LhoEhV5BhQbCUo2uiRQP-61" edge="1">
          <mxGeometry relative="1" as="geometry">
            <Array as="points">
              <mxPoint x="180" y="278" />
              <mxPoint x="180" y="249" />
              <mxPoint x="190" y="249" />
            </Array>
          </mxGeometry>
        </mxCell>
        <mxCell id="LhoEhV5BhQbCUo2uiRQP-55" value="distribuir papeis" style="fillColor=#ffffc0;strokeColor=#ff0000;fontColor=#000000;rounded=1;arcSize=40;" parent="2" vertex="1">
          <mxGeometry x="60" y="270" width="110" height="30" as="geometry" />
        </mxCell>
        <mxCell id="LhoEhV5BhQbCUo2uiRQP-76" style="edgeStyle=orthogonalEdgeStyle;rounded=0;orthogonalLoop=1;jettySize=auto;html=1;entryX=0.817;entryY=0.311;entryDx=0;entryDy=0;entryPerimeter=0;fillColor=#e51400;strokeColor=#B20000;" parent="2" source="LhoEhV5BhQbCUo2uiRQP-58" target="LhoEhV5BhQbCUo2uiRQP-70" edge="1">
          <mxGeometry relative="1" as="geometry">
            <mxPoint x="380" y="222" as="targetPoint" />
          </mxGeometry>
        </mxCell>
        <mxCell id="LhoEhV5BhQbCUo2uiRQP-58" value="posiciona&#xa;aventureiros" style="fillColor=#ffffc0;strokeColor=#ff0000;fontColor=#000000;rounded=1;arcSize=40;" parent="2" vertex="1">
          <mxGeometry x="250" y="204" width="110" height="46" as="geometry" />
        </mxCell>
        <mxCell id="LhoEhV5BhQbCUo2uiRQP-64" style="edgeStyle=orthogonalEdgeStyle;rounded=0;orthogonalLoop=1;jettySize=auto;html=1;entryX=0;entryY=0.5;entryDx=0;entryDy=0;fillColor=#e51400;strokeColor=#B20000;" parent="2" source="LhoEhV5BhQbCUo2uiRQP-61" target="LhoEhV5BhQbCUo2uiRQP-58" edge="1">
          <mxGeometry relative="1" as="geometry" />
        </mxCell>
        <mxCell id="LhoEhV5BhQbCUo2uiRQP-61" value="" style="shape=line;html=1;strokeWidth=6;strokeColor=#B20000;rotation=-90;fillColor=#e51400;fontColor=#ffffff;" parent="2" vertex="1">
          <mxGeometry x="177.09" y="239.09" width="60.31" height="10" as="geometry" />
        </mxCell>
        <mxCell id="LhoEhV5BhQbCUo2uiRQP-77" style="edgeStyle=orthogonalEdgeStyle;rounded=0;orthogonalLoop=1;jettySize=auto;html=1;entryX=0.665;entryY=0.742;entryDx=0;entryDy=0;entryPerimeter=0;fillColor=#e51400;strokeColor=#B20000;" parent="2" source="LhoEhV5BhQbCUo2uiRQP-66" target="LhoEhV5BhQbCUo2uiRQP-70" edge="1">
          <mxGeometry relative="1" as="geometry" />
        </mxCell>
        <mxCell id="LhoEhV5BhQbCUo2uiRQP-66" value="distribuir tesouro" style="fillColor=#ffffc0;strokeColor=#ff0000;fontColor=#000000;rounded=1;arcSize=40;" parent="2" vertex="1">
          <mxGeometry x="250" y="274" width="110" height="26" as="geometry" />
        </mxCell>
        <mxCell id="LhoEhV5BhQbCUo2uiRQP-90" style="edgeStyle=orthogonalEdgeStyle;rounded=0;orthogonalLoop=1;jettySize=auto;html=1;entryX=0.75;entryY=0;entryDx=0;entryDy=0;exitX=0.565;exitY=0.227;exitDx=0;exitDy=0;exitPerimeter=0;fillColor=#e51400;strokeColor=#B20000;" parent="2" source="LhoEhV5BhQbCUo2uiRQP-70" target="LhoEhV5BhQbCUo2uiRQP-84" edge="1">
          <mxGeometry relative="1" as="geometry" />
        </mxCell>
        <mxCell id="LhoEhV5BhQbCUo2uiRQP-70" value="" style="shape=line;html=1;strokeWidth=6;strokeColor=#ff0000;rotation=-90;" parent="2" vertex="1">
          <mxGeometry x="195.56" y="347.56" width="395" height="10" as="geometry" />
        </mxCell>
        <mxCell id="LhoEhV5BhQbCUo2uiRQP-94" style="edgeStyle=orthogonalEdgeStyle;rounded=0;orthogonalLoop=1;jettySize=auto;html=1;entryX=0.054;entryY=0.53;entryDx=0;entryDy=0;entryPerimeter=0;fillColor=#e51400;strokeColor=#B20000;" parent="2" source="LhoEhV5BhQbCUo2uiRQP-84" target="LhoEhV5BhQbCUo2uiRQP-91" edge="1">
          <mxGeometry relative="1" as="geometry">
            <Array as="points">
              <mxPoint x="220" y="368" />
              <mxPoint x="220" y="433" />
            </Array>
          </mxGeometry>
        </mxCell>
        <mxCell id="LhoEhV5BhQbCUo2uiRQP-84" value="executar rodada" style="rounded=1;whiteSpace=wrap;html=1;arcSize=40;fontColor=#000000;fillColor=#ffffc0;strokeColor=#ff0000;" parent="2" vertex="1">
          <mxGeometry x="237.4" y="355.12" width="120" height="24.88" as="geometry" />
        </mxCell>
        <mxCell id="LhoEhV5BhQbCUo2uiRQP-91" value="fim" style="rhombus;whiteSpace=wrap;html=1;fontColor=#000000;fillColor=#ffffc0;strokeColor=#ff0000;" parent="2" vertex="1">
          <mxGeometry x="240.31" y="412" width="80" height="40" as="geometry" />
        </mxCell>
        <mxCell id="LhoEhV5BhQbCUo2uiRQP-92" value="no" style="edgeStyle=orthogonalEdgeStyle;html=1;align=left;verticalAlign=bottom;endArrow=open;endSize=8;strokeColor=#ff0000;rounded=0;entryX=1;entryY=0.5;entryDx=0;entryDy=0;exitX=1;exitY=0.5;exitDx=0;exitDy=0;" parent="2" source="LhoEhV5BhQbCUo2uiRQP-91" target="LhoEhV5BhQbCUo2uiRQP-84" edge="1">
          <mxGeometry x="-1" relative="1" as="geometry">
            <mxPoint x="430" y="475" as="targetPoint" />
            <Array as="points">
              <mxPoint x="380" y="432" />
              <mxPoint x="380" y="368" />
            </Array>
          </mxGeometry>
        </mxCell>
        <mxCell id="LhoEhV5BhQbCUo2uiRQP-93" value="yes" style="edgeStyle=orthogonalEdgeStyle;html=1;align=left;verticalAlign=top;endArrow=open;endSize=8;strokeColor=#ff0000;rounded=0;entryX=0.5;entryY=0;entryDx=0;entryDy=0;exitX=0.5;exitY=1;exitDx=0;exitDy=0;" parent="2" source="LhoEhV5BhQbCUo2uiRQP-91" target="LhoEhV5BhQbCUo2uiRQP-95" edge="1">
          <mxGeometry x="-1" relative="1" as="geometry">
            <mxPoint x="290" y="555" as="targetPoint" />
            <Array as="points" />
          </mxGeometry>
        </mxCell>
        <mxCell id="LhoEhV5BhQbCUo2uiRQP-95" value="" style="ellipse;html=1;shape=endState;fillColor=#000000;strokeColor=#ff0000;" parent="2" vertex="1">
          <mxGeometry x="265.31" y="482" width="30" height="30" as="geometry" />
        </mxCell>
        <mxCell id="3" value="Executar Rodada" style="swimlane;whiteSpace=wrap" parent="1" vertex="1">
          <mxGeometry x="444.5" y="120" width="405.5" height="578" as="geometry" />
        </mxCell>
        <mxCell id="13" value="" style="ellipse;shape=startState;fillColor=#000000;strokeColor=#ff0000;" parent="3" vertex="1">
          <mxGeometry x="72.75" y="40" width="30" height="30" as="geometry" />
        </mxCell>
        <mxCell id="14" value="" style="edgeStyle=elbowEdgeStyle;elbow=horizontal;verticalAlign=bottom;endArrow=open;endSize=8;strokeColor=#FF0000;endFill=1;rounded=0;exitX=0.544;exitY=0.81;exitDx=0;exitDy=0;exitPerimeter=0;" parent="3" source="13" target="LhoEhV5BhQbCUo2uiRQP-85" edge="1">
          <mxGeometry x="32.25" y="-10" as="geometry">
            <mxPoint x="67.75" y="80" as="targetPoint" />
            <mxPoint x="67.25" y="40" as="sourcePoint" />
          </mxGeometry>
        </mxCell>
        <mxCell id="LhoEhV5BhQbCUo2uiRQP-85" value="selecionar&lt;br&gt;aventureiro" style="rounded=1;whiteSpace=wrap;html=1;arcSize=40;fontColor=#000000;fillColor=#ffffc0;strokeColor=#ff0000;" parent="3" vertex="1">
          <mxGeometry x="27.75" y="92" width="120" height="40" as="geometry" />
        </mxCell>
        <mxCell id="LhoEhV5BhQbCUo2uiRQP-86" value="" style="edgeStyle=orthogonalEdgeStyle;html=1;verticalAlign=bottom;endArrow=open;endSize=8;strokeColor=#ff0000;rounded=0;entryX=0;entryY=0.5;entryDx=0;entryDy=0;" parent="3" source="LhoEhV5BhQbCUo2uiRQP-85" target="LhoEhV5BhQbCUo2uiRQP-99" edge="1">
          <mxGeometry relative="1" as="geometry">
            <mxPoint x="177.75" y="42" as="targetPoint" />
            <Array as="points">
              <mxPoint x="166" y="112" />
              <mxPoint x="166" y="50" />
            </Array>
          </mxGeometry>
        </mxCell>
        <mxCell id="LhoEhV5BhQbCUo2uiRQP-88" value="executar ação" style="rounded=1;whiteSpace=wrap;html=1;arcSize=40;fontColor=#000000;fillColor=#ffffc0;strokeColor=#ff0000;" parent="3" vertex="1">
          <mxGeometry x="257.75" y="112" width="120" height="40" as="geometry" />
        </mxCell>
        <mxCell id="LhoEhV5BhQbCUo2uiRQP-89" value="" style="edgeStyle=orthogonalEdgeStyle;html=1;verticalAlign=bottom;endArrow=open;endSize=8;strokeColor=#ff0000;rounded=0;entryX=0.5;entryY=0.312;entryDx=0;entryDy=0;entryPerimeter=0;" parent="3" source="LhoEhV5BhQbCUo2uiRQP-88" target="LhoEhV5BhQbCUo2uiRQP-96" edge="1">
          <mxGeometry relative="1" as="geometry">
            <mxPoint x="67.75" y="280" as="targetPoint" />
            <Array as="points">
              <mxPoint x="198" y="142" />
            </Array>
          </mxGeometry>
        </mxCell>
        <mxCell id="LhoEhV5BhQbCUo2uiRQP-96" value="" style="shape=line;html=1;strokeWidth=6;strokeColor=#ff0000;" parent="3" vertex="1">
          <mxGeometry x="25.5" y="162" width="344.5" height="10" as="geometry" />
        </mxCell>
        <mxCell id="LhoEhV5BhQbCUo2uiRQP-97" value="" style="edgeStyle=orthogonalEdgeStyle;html=1;verticalAlign=bottom;endArrow=open;endSize=8;strokeColor=#ff0000;rounded=0;entryX=0.537;entryY=0;entryDx=0;entryDy=0;entryPerimeter=0;" parent="3" source="LhoEhV5BhQbCUo2uiRQP-96" target="LhoEhV5BhQbCUo2uiRQP-117" edge="1">
          <mxGeometry relative="1" as="geometry">
            <mxPoint x="107.75" y="292" as="targetPoint" />
            <Array as="points">
              <mxPoint x="102" y="180" />
              <mxPoint x="102" y="180" />
            </Array>
          </mxGeometry>
        </mxCell>
        <mxCell id="LhoEhV5BhQbCUo2uiRQP-99" value="todos?" style="rhombus;whiteSpace=wrap;html=1;fontColor=#000000;fillColor=#ffffc0;strokeColor=#ff0000;" parent="3" vertex="1">
          <mxGeometry x="188.75" y="30" width="80" height="40" as="geometry" />
        </mxCell>
        <mxCell id="LhoEhV5BhQbCUo2uiRQP-100" value="no" style="edgeStyle=orthogonalEdgeStyle;html=1;align=left;verticalAlign=bottom;endArrow=open;endSize=8;strokeColor=#ff0000;rounded=0;entryX=0;entryY=0.5;entryDx=0;entryDy=0;exitX=0.5;exitY=1;exitDx=0;exitDy=0;entryPerimeter=0;" parent="3" source="LhoEhV5BhQbCUo2uiRQP-99" target="uwNvuSPqagO3H07fs6th-48" edge="1">
          <mxGeometry x="-0.4441" relative="1" as="geometry">
            <mxPoint x="327.75" y="42" as="targetPoint" />
            <Array as="points">
              <mxPoint x="229" y="87" />
            </Array>
            <mxPoint as="offset" />
            <mxPoint x="217.75" y="62" as="sourcePoint" />
          </mxGeometry>
        </mxCell>
        <mxCell id="LhoEhV5BhQbCUo2uiRQP-101" value="yes" style="edgeStyle=orthogonalEdgeStyle;html=1;align=left;verticalAlign=top;endArrow=open;endSize=8;strokeColor=#ff0000;rounded=0;exitX=1;exitY=0.5;exitDx=0;exitDy=0;entryX=0.871;entryY=0;entryDx=0;entryDy=0;entryPerimeter=0;" parent="3" source="LhoEhV5BhQbCUo2uiRQP-99" target="3" edge="1">
          <mxGeometry x="0.0586" relative="1" as="geometry">
            <mxPoint x="395.5" y="42" as="targetPoint" />
            <Array as="points">
              <mxPoint x="353" y="50" />
            </Array>
            <mxPoint as="offset" />
            <mxPoint x="257.75" y="42" as="sourcePoint" />
          </mxGeometry>
        </mxCell>
        <mxCell id="LhoEhV5BhQbCUo2uiRQP-117" value="mover" style="rounded=1;whiteSpace=wrap;html=1;arcSize=40;fontColor=#000000;fillColor=#ffffc0;strokeColor=#ff0000;" parent="3" vertex="1">
          <mxGeometry x="37.75" y="192" width="120" height="40" as="geometry" />
        </mxCell>
        <mxCell id="LhoEhV5BhQbCUo2uiRQP-118" value="" style="edgeStyle=orthogonalEdgeStyle;html=1;verticalAlign=bottom;endArrow=open;endSize=8;strokeColor=#ff0000;rounded=0;entryX=0.25;entryY=0.5;entryDx=0;entryDy=0;entryPerimeter=0;" parent="3" source="LhoEhV5BhQbCUo2uiRQP-117" target="LhoEhV5BhQbCUo2uiRQP-138" edge="1">
          <mxGeometry relative="1" as="geometry">
            <mxPoint x="97.75" y="292" as="targetPoint" />
          </mxGeometry>
        </mxCell>
        <mxCell id="LhoEhV5BhQbCUo2uiRQP-119" value="" style="edgeStyle=orthogonalEdgeStyle;html=1;verticalAlign=bottom;endArrow=open;endSize=8;strokeColor=#ff0000;rounded=0;exitX=0.47;exitY=0.714;exitDx=0;exitDy=0;exitPerimeter=0;" parent="3" source="LhoEhV5BhQbCUo2uiRQP-96" target="LhoEhV5BhQbCUo2uiRQP-120" edge="1">
          <mxGeometry relative="1" as="geometry">
            <mxPoint x="197.75" y="342" as="targetPoint" />
            <mxPoint x="188.25" y="222" as="sourcePoint" />
            <Array as="points">
              <mxPoint x="187.25" y="242" />
              <mxPoint x="188.25" y="242" />
            </Array>
          </mxGeometry>
        </mxCell>
        <mxCell id="LhoEhV5BhQbCUo2uiRQP-120" value="trocar cartas" style="rounded=1;whiteSpace=wrap;html=1;arcSize=40;fontColor=#000000;fillColor=#ffffc0;strokeColor=#ff0000;" parent="3" vertex="1">
          <mxGeometry x="117.75" y="242" width="120" height="40" as="geometry" />
        </mxCell>
        <mxCell id="LhoEhV5BhQbCUo2uiRQP-121" value="" style="edgeStyle=orthogonalEdgeStyle;html=1;verticalAlign=bottom;endArrow=open;endSize=8;strokeColor=#ff0000;rounded=0;entryX=0.493;entryY=0.257;entryDx=0;entryDy=0;entryPerimeter=0;" parent="3" source="LhoEhV5BhQbCUo2uiRQP-120" target="LhoEhV5BhQbCUo2uiRQP-138" edge="1">
          <mxGeometry relative="1" as="geometry">
            <mxPoint x="187.75" y="355" as="targetPoint" />
          </mxGeometry>
        </mxCell>
        <mxCell id="LhoEhV5BhQbCUo2uiRQP-122" value="" style="edgeStyle=orthogonalEdgeStyle;html=1;verticalAlign=bottom;endArrow=open;endSize=8;strokeColor=#ff0000;rounded=0;" parent="3" target="LhoEhV5BhQbCUo2uiRQP-123" edge="1">
          <mxGeometry relative="1" as="geometry">
            <mxPoint x="277.75" y="292" as="targetPoint" />
            <mxPoint x="268.25" y="172" as="sourcePoint" />
            <Array as="points">
              <mxPoint x="268.25" y="192" />
              <mxPoint x="268.25" y="192" />
            </Array>
          </mxGeometry>
        </mxCell>
        <mxCell id="LhoEhV5BhQbCUo2uiRQP-123" value="drenar" style="rounded=1;whiteSpace=wrap;html=1;arcSize=40;fontColor=#000000;fillColor=#ffffc0;strokeColor=#ff0000;" parent="3" vertex="1">
          <mxGeometry x="207.75" y="192" width="120" height="40" as="geometry" />
        </mxCell>
        <mxCell id="LhoEhV5BhQbCUo2uiRQP-124" value="" style="edgeStyle=orthogonalEdgeStyle;html=1;verticalAlign=bottom;endArrow=open;endSize=8;strokeColor=#ff0000;rounded=0;entryX=0.673;entryY=0.457;entryDx=0;entryDy=0;entryPerimeter=0;" parent="3" source="LhoEhV5BhQbCUo2uiRQP-123" target="LhoEhV5BhQbCUo2uiRQP-138" edge="1">
          <mxGeometry relative="1" as="geometry">
            <mxPoint x="267.75" y="292" as="targetPoint" />
            <Array as="points" />
          </mxGeometry>
        </mxCell>
        <mxCell id="LhoEhV5BhQbCUo2uiRQP-125" value="" style="edgeStyle=orthogonalEdgeStyle;html=1;verticalAlign=bottom;endArrow=open;endSize=8;strokeColor=#ff0000;rounded=0;exitX=0.909;exitY=0.429;exitDx=0;exitDy=0;exitPerimeter=0;" parent="3" source="LhoEhV5BhQbCUo2uiRQP-96" target="LhoEhV5BhQbCUo2uiRQP-126" edge="1">
          <mxGeometry relative="1" as="geometry">
            <mxPoint x="347.75" y="375" as="targetPoint" />
            <mxPoint x="338.25" y="255" as="sourcePoint" />
            <Array as="points" />
          </mxGeometry>
        </mxCell>
        <mxCell id="LhoEhV5BhQbCUo2uiRQP-126" value="usar carta ação" style="rounded=1;whiteSpace=wrap;html=1;arcSize=40;fontColor=#000000;fillColor=#ffffc0;strokeColor=#ff0000;" parent="3" vertex="1">
          <mxGeometry x="255.5" y="302" width="120" height="40" as="geometry" />
        </mxCell>
        <mxCell id="LhoEhV5BhQbCUo2uiRQP-127" value="" style="edgeStyle=orthogonalEdgeStyle;html=1;verticalAlign=bottom;endArrow=open;endSize=8;strokeColor=#ff0000;rounded=0;entryX=1;entryY=0.5;entryDx=0;entryDy=0;entryPerimeter=0;" parent="3" source="LhoEhV5BhQbCUo2uiRQP-126" target="LhoEhV5BhQbCUo2uiRQP-138" edge="1">
          <mxGeometry relative="1" as="geometry">
            <mxPoint x="337.75" y="388" as="targetPoint" />
          </mxGeometry>
        </mxCell>
        <mxCell id="LhoEhV5BhQbCUo2uiRQP-128" value="" style="edgeStyle=orthogonalEdgeStyle;html=1;verticalAlign=bottom;endArrow=open;endSize=8;strokeColor=#ff0000;rounded=0;exitX=0.017;exitY=0.771;exitDx=0;exitDy=0;exitPerimeter=0;entryX=0.446;entryY=-0.079;entryDx=0;entryDy=0;entryPerimeter=0;" parent="3" source="LhoEhV5BhQbCUo2uiRQP-96" target="LhoEhV5BhQbCUo2uiRQP-129" edge="1">
          <mxGeometry relative="1" as="geometry">
            <mxPoint x="87.75" y="375" as="targetPoint" />
            <mxPoint x="78.25" y="255" as="sourcePoint" />
            <Array as="points">
              <mxPoint x="18.25" y="170" />
              <mxPoint x="18.25" y="262" />
              <mxPoint x="71.25" y="262" />
            </Array>
          </mxGeometry>
        </mxCell>
        <mxCell id="LhoEhV5BhQbCUo2uiRQP-129" value="pilhar" style="rounded=1;whiteSpace=wrap;html=1;arcSize=40;fontColor=#000000;fillColor=#ffffc0;strokeColor=#ff0000;" parent="3" vertex="1">
          <mxGeometry x="17.75" y="302" width="120" height="40" as="geometry" />
        </mxCell>
        <mxCell id="LhoEhV5BhQbCUo2uiRQP-130" value="" style="edgeStyle=orthogonalEdgeStyle;html=1;verticalAlign=bottom;endArrow=open;endSize=8;strokeColor=#ff0000;rounded=0;entryX=0;entryY=0.5;entryDx=0;entryDy=0;entryPerimeter=0;" parent="3" source="LhoEhV5BhQbCUo2uiRQP-129" target="LhoEhV5BhQbCUo2uiRQP-138" edge="1">
          <mxGeometry relative="1" as="geometry">
            <mxPoint x="77.75" y="388" as="targetPoint" />
          </mxGeometry>
        </mxCell>
        <mxCell id="LhoEhV5BhQbCUo2uiRQP-137" value="" style="edgeStyle=orthogonalEdgeStyle;html=1;verticalAlign=bottom;endArrow=open;endSize=8;strokeColor=#ff0000;rounded=0;entryX=0;entryY=0.5;entryDx=0;entryDy=0;exitX=0;exitY=0.5;exitDx=0;exitDy=0;" parent="3" source="uwNvuSPqagO3H07fs6th-40" target="LhoEhV5BhQbCUo2uiRQP-85" edge="1">
          <mxGeometry relative="1" as="geometry">
            <mxPoint x="215.5" y="582" as="targetPoint" />
            <Array as="points">
              <mxPoint x="6" y="492" />
              <mxPoint x="6" y="112" />
            </Array>
          </mxGeometry>
        </mxCell>
        <mxCell id="uwNvuSPqagO3H07fs6th-50" style="edgeStyle=orthogonalEdgeStyle;rounded=0;orthogonalLoop=1;jettySize=auto;html=1;entryX=0.5;entryY=0;entryDx=0;entryDy=0;fillColor=#e51400;strokeColor=#B20000;" parent="3" source="LhoEhV5BhQbCUo2uiRQP-138" target="uwNvuSPqagO3H07fs6th-42" edge="1">
          <mxGeometry relative="1" as="geometry">
            <Array as="points">
              <mxPoint x="205" y="380" />
              <mxPoint x="296" y="380" />
            </Array>
          </mxGeometry>
        </mxCell>
        <mxCell id="LhoEhV5BhQbCUo2uiRQP-138" value="" style="shape=line;html=1;strokeWidth=6;strokeColor=#ff0000;" parent="3" vertex="1">
          <mxGeometry x="104.75" y="362" width="200" height="10" as="geometry" />
        </mxCell>
        <mxCell id="uwNvuSPqagO3H07fs6th-38" style="edgeStyle=orthogonalEdgeStyle;rounded=0;orthogonalLoop=1;jettySize=auto;html=1;entryX=0.796;entryY=0.519;entryDx=0;entryDy=0;entryPerimeter=0;fillColor=#e51400;strokeColor=#B20000;" parent="3" source="uwNvuSPqagO3H07fs6th-29" target="uwNvuSPqagO3H07fs6th-37" edge="1">
          <mxGeometry relative="1" as="geometry" />
        </mxCell>
        <mxCell id="uwNvuSPqagO3H07fs6th-29" value="declarar vitória" style="rounded=1;whiteSpace=wrap;html=1;arcSize=40;fontColor=#000000;fillColor=#ffffc0;strokeColor=#ff0000;" parent="3" vertex="1">
          <mxGeometry x="103.25" y="402" width="120" height="40" as="geometry" />
        </mxCell>
        <mxCell id="uwNvuSPqagO3H07fs6th-37" value="" style="ellipse;html=1;shape=endState;fillColor=#000000;strokeColor=#ff0000;" parent="3" vertex="1">
          <mxGeometry x="37.75" y="407" width="30" height="30" as="geometry" />
        </mxCell>
        <mxCell id="uwNvuSPqagO3H07fs6th-40" value="distribuir alagamentos e tesouros" style="rounded=1;whiteSpace=wrap;html=1;arcSize=40;fontColor=#000000;fillColor=#ffffc0;strokeColor=#ff0000;" parent="3" vertex="1">
          <mxGeometry x="72.75" y="482" width="120" height="40" as="geometry" />
        </mxCell>
        <mxCell id="uwNvuSPqagO3H07fs6th-42" value="Fugiu?" style="rhombus;whiteSpace=wrap;html=1;fontColor=#000000;fillColor=#ffffc0;strokeColor=#ff0000;" parent="3" vertex="1">
          <mxGeometry x="255.5" y="402" width="80" height="40" as="geometry" />
        </mxCell>
        <mxCell id="uwNvuSPqagO3H07fs6th-43" value="no" style="edgeStyle=orthogonalEdgeStyle;html=1;align=left;verticalAlign=bottom;endArrow=open;endSize=8;strokeColor=#ff0000;rounded=0;entryX=0.5;entryY=0;entryDx=0;entryDy=0;" parent="3" source="uwNvuSPqagO3H07fs6th-42" target="uwNvuSPqagO3H07fs6th-45" edge="1">
          <mxGeometry x="-0.1" y="10" relative="1" as="geometry">
            <mxPoint x="435.5" y="422" as="targetPoint" />
            <mxPoint as="offset" />
          </mxGeometry>
        </mxCell>
        <mxCell id="uwNvuSPqagO3H07fs6th-44" value="yes" style="edgeStyle=orthogonalEdgeStyle;html=1;align=left;verticalAlign=top;endArrow=open;endSize=8;strokeColor=#ff0000;rounded=0;entryX=0.923;entryY=0.5;entryDx=0;entryDy=0;entryPerimeter=0;" parent="3" source="uwNvuSPqagO3H07fs6th-42" target="uwNvuSPqagO3H07fs6th-29" edge="1">
          <mxGeometry x="-0.518" y="8" relative="1" as="geometry">
            <mxPoint x="295.5" y="502" as="targetPoint" />
            <mxPoint as="offset" />
          </mxGeometry>
        </mxCell>
        <mxCell id="uwNvuSPqagO3H07fs6th-45" value="Ações" style="rhombus;whiteSpace=wrap;html=1;fontColor=#000000;fillColor=#ffffc0;strokeColor=#ff0000;" parent="3" vertex="1">
          <mxGeometry x="255.5" y="482" width="80" height="40" as="geometry" />
        </mxCell>
        <mxCell id="uwNvuSPqagO3H07fs6th-46" value="no" style="edgeStyle=orthogonalEdgeStyle;html=1;align=left;verticalAlign=bottom;endArrow=open;endSize=8;strokeColor=#ff0000;rounded=0;entryX=1;entryY=0.5;entryDx=0;entryDy=0;" parent="3" source="uwNvuSPqagO3H07fs6th-45" target="uwNvuSPqagO3H07fs6th-40" edge="1">
          <mxGeometry x="-0.0438" y="18" relative="1" as="geometry">
            <mxPoint x="431.5" y="497" as="targetPoint" />
            <mxPoint as="offset" />
          </mxGeometry>
        </mxCell>
        <mxCell id="uwNvuSPqagO3H07fs6th-47" value="yes" style="edgeStyle=orthogonalEdgeStyle;html=1;align=left;verticalAlign=top;endArrow=open;endSize=8;strokeColor=#ff0000;rounded=0;entryX=1;entryY=0.5;entryDx=0;entryDy=0;entryPerimeter=0;" parent="3" source="uwNvuSPqagO3H07fs6th-45" target="uwNvuSPqagO3H07fs6th-48" edge="1">
          <mxGeometry x="-1" relative="1" as="geometry">
            <mxPoint x="377.5" y="72" as="targetPoint" />
            <Array as="points">
              <mxPoint x="388" y="502" />
              <mxPoint x="388" y="87" />
            </Array>
          </mxGeometry>
        </mxCell>
        <mxCell id="uwNvuSPqagO3H07fs6th-48" value="" style="shape=line;html=1;strokeWidth=6;strokeColor=#ff0000;" parent="3" vertex="1">
          <mxGeometry x="280.5" y="82" width="70" height="10" as="geometry" />
        </mxCell>
        <mxCell id="uwNvuSPqagO3H07fs6th-49" value="" style="edgeStyle=orthogonalEdgeStyle;html=1;verticalAlign=bottom;endArrow=open;endSize=8;strokeColor=#ff0000;rounded=0;entryX=0.476;entryY=0.018;entryDx=0;entryDy=0;entryPerimeter=0;" parent="3" source="uwNvuSPqagO3H07fs6th-48" target="LhoEhV5BhQbCUo2uiRQP-88" edge="1">
          <mxGeometry relative="1" as="geometry">
            <mxPoint x="355.25" y="150" as="targetPoint" />
          </mxGeometry>
        </mxCell>
        <mxCell id="LhoEhV5BhQbCUo2uiRQP-103" value="Distribuir alagamentos e tesouros" style="swimlane;whiteSpace=wrap;" parent="1" vertex="1">
          <mxGeometry x="860" y="120" width="405.5" height="578" as="geometry" />
        </mxCell>
        <mxCell id="LhoEhV5BhQbCUo2uiRQP-104" value="" style="ellipse;shape=startState;fillColor=#000000;strokeColor=#ff0000;" parent="LhoEhV5BhQbCUo2uiRQP-103" vertex="1">
          <mxGeometry x="346.38" y="55" width="30" height="30" as="geometry" />
        </mxCell>
        <mxCell id="LhoEhV5BhQbCUo2uiRQP-105" value="" style="edgeStyle=elbowEdgeStyle;elbow=horizontal;verticalAlign=bottom;endArrow=open;endSize=8;strokeColor=#FF0000;endFill=1;rounded=0" parent="LhoEhV5BhQbCUo2uiRQP-103" source="LhoEhV5BhQbCUo2uiRQP-104" target="LhoEhV5BhQbCUo2uiRQP-106" edge="1">
          <mxGeometry x="40" y="20" as="geometry">
            <mxPoint x="75.5" y="110" as="targetPoint" />
          </mxGeometry>
        </mxCell>
        <mxCell id="uwNvuSPqagO3H07fs6th-54" style="edgeStyle=orthogonalEdgeStyle;rounded=0;orthogonalLoop=1;jettySize=auto;html=1;entryX=0.5;entryY=0;entryDx=0;entryDy=0;fillColor=#e51400;strokeColor=#B20000;exitX=0.5;exitY=0;exitDx=0;exitDy=0;" parent="LhoEhV5BhQbCUo2uiRQP-103" source="LhoEhV5BhQbCUo2uiRQP-106" target="LhoEhV5BhQbCUo2uiRQP-112" edge="1">
          <mxGeometry relative="1" as="geometry" />
        </mxCell>
        <mxCell id="LhoEhV5BhQbCUo2uiRQP-106" value="alocar cartas tesouro na mão" style="rounded=1;whiteSpace=wrap;html=1;arcSize=40;fontColor=#000000;fillColor=#ffffc0;strokeColor=#ff0000;" parent="LhoEhV5BhQbCUo2uiRQP-103" vertex="1">
          <mxGeometry x="181.38" y="50" width="120" height="40" as="geometry" />
        </mxCell>
        <mxCell id="uwNvuSPqagO3H07fs6th-56" style="edgeStyle=orthogonalEdgeStyle;rounded=0;orthogonalLoop=1;jettySize=auto;html=1;fillColor=#e51400;strokeColor=#B20000;entryX=0.727;entryY=0.339;entryDx=0;entryDy=0;entryPerimeter=0;" parent="LhoEhV5BhQbCUo2uiRQP-103" source="LhoEhV5BhQbCUo2uiRQP-108" target="LhoEhV5BhQbCUo2uiRQP-110" edge="1">
          <mxGeometry relative="1" as="geometry">
            <Array as="points" />
          </mxGeometry>
        </mxCell>
        <mxCell id="LhoEhV5BhQbCUo2uiRQP-108" value="embaralha e sobrepõe alagamento" style="rounded=1;whiteSpace=wrap;html=1;arcSize=40;fontColor=#000000;fillColor=#ffffc0;strokeColor=#ff0000;" parent="LhoEhV5BhQbCUo2uiRQP-103" vertex="1">
          <mxGeometry x="36.38000000000002" y="155" width="120" height="40" as="geometry" />
        </mxCell>
        <mxCell id="LhoEhV5BhQbCUo2uiRQP-110" value="" style="shape=line;html=1;strokeWidth=6;strokeColor=#ff0000;" parent="LhoEhV5BhQbCUo2uiRQP-103" vertex="1">
          <mxGeometry x="25.86" y="220" width="96.75" height="10" as="geometry" />
        </mxCell>
        <mxCell id="LhoEhV5BhQbCUo2uiRQP-111" value="" style="edgeStyle=orthogonalEdgeStyle;html=1;verticalAlign=bottom;endArrow=open;endSize=8;strokeColor=#ff0000;rounded=0;" parent="LhoEhV5BhQbCUo2uiRQP-103" source="LhoEhV5BhQbCUo2uiRQP-110" target="uwNvuSPqagO3H07fs6th-16" edge="1">
          <mxGeometry relative="1" as="geometry">
            <mxPoint x="105.5" y="322" as="targetPoint" />
          </mxGeometry>
        </mxCell>
        <mxCell id="LhoEhV5BhQbCUo2uiRQP-112" value="enchente?" style="rhombus;whiteSpace=wrap;html=1;fontColor=#000000;fillColor=#ffffc0;strokeColor=#ff0000;" parent="LhoEhV5BhQbCUo2uiRQP-103" vertex="1">
          <mxGeometry x="25.859999999999996" y="50" width="80" height="40" as="geometry" />
        </mxCell>
        <mxCell id="LhoEhV5BhQbCUo2uiRQP-113" value="no" style="edgeStyle=orthogonalEdgeStyle;html=1;align=left;verticalAlign=bottom;endArrow=open;endSize=8;strokeColor=#ff0000;rounded=0;entryX=0;entryY=0.5;entryDx=0;entryDy=0;entryPerimeter=0;exitX=0;exitY=0.5;exitDx=0;exitDy=0;" parent="LhoEhV5BhQbCUo2uiRQP-103" source="LhoEhV5BhQbCUo2uiRQP-112" target="LhoEhV5BhQbCUo2uiRQP-110" edge="1">
          <mxGeometry x="-0.4441" relative="1" as="geometry">
            <mxPoint x="240" y="190" as="targetPoint" />
            <Array as="points">
              <mxPoint x="10" y="70" />
              <mxPoint x="10" y="225" />
            </Array>
            <mxPoint as="offset" />
          </mxGeometry>
        </mxCell>
        <mxCell id="LhoEhV5BhQbCUo2uiRQP-114" value="yes" style="edgeStyle=orthogonalEdgeStyle;html=1;align=left;verticalAlign=top;endArrow=open;endSize=8;strokeColor=#ff0000;rounded=0;exitX=1;exitY=0.5;exitDx=0;exitDy=0;" parent="LhoEhV5BhQbCUo2uiRQP-103" source="LhoEhV5BhQbCUo2uiRQP-112" target="uwNvuSPqagO3H07fs6th-51" edge="1">
          <mxGeometry x="-0.1978" y="4" relative="1" as="geometry">
            <mxPoint x="325.50000000000546" y="50" as="targetPoint" />
            <Array as="points">
              <mxPoint x="126" y="70" />
            </Array>
            <mxPoint as="offset" />
          </mxGeometry>
        </mxCell>
        <mxCell id="uwNvuSPqagO3H07fs6th-14" value="&amp;nbsp;avalia&lt;br&gt;&amp;nbsp; aventureiros" style="rounded=1;whiteSpace=wrap;html=1;arcSize=40;fontColor=#000000;fillColor=#ffffc0;strokeColor=#ff0000;" parent="LhoEhV5BhQbCUo2uiRQP-103" vertex="1">
          <mxGeometry x="170" y="230" width="120" height="40" as="geometry" />
        </mxCell>
        <mxCell id="uwNvuSPqagO3H07fs6th-66" style="edgeStyle=orthogonalEdgeStyle;rounded=0;orthogonalLoop=1;jettySize=auto;html=1;fillColor=#e51400;strokeColor=#B20000;entryX=0.5;entryY=0;entryDx=0;entryDy=0;" parent="LhoEhV5BhQbCUo2uiRQP-103" source="uwNvuSPqagO3H07fs6th-14" target="uwNvuSPqagO3H07fs6th-18" edge="1">
          <mxGeometry relative="1" as="geometry">
            <Array as="points">
              <mxPoint x="210" y="300" />
              <mxPoint x="210" y="300" />
            </Array>
          </mxGeometry>
        </mxCell>
        <mxCell id="uwNvuSPqagO3H07fs6th-67" style="edgeStyle=orthogonalEdgeStyle;rounded=0;orthogonalLoop=1;jettySize=auto;html=1;fillColor=#e51400;strokeColor=#B20000;" parent="LhoEhV5BhQbCUo2uiRQP-103" source="uwNvuSPqagO3H07fs6th-16" target="uwNvuSPqagO3H07fs6th-14" edge="1">
          <mxGeometry relative="1" as="geometry">
            <Array as="points">
              <mxPoint x="150" y="273" />
              <mxPoint x="150" y="250" />
            </Array>
          </mxGeometry>
        </mxCell>
        <mxCell id="uwNvuSPqagO3H07fs6th-16" value="executar inundações" style="rounded=1;whiteSpace=wrap;html=1;arcSize=40;fontColor=#000000;fillColor=#ffffc0;strokeColor=#ff0000;" parent="LhoEhV5BhQbCUo2uiRQP-103" vertex="1">
          <mxGeometry x="14.129999999999999" y="253" width="120" height="40" as="geometry" />
        </mxCell>
        <mxCell id="uwNvuSPqagO3H07fs6th-18" value="Afogou?" style="rhombus;whiteSpace=wrap;html=1;fontColor=#000000;fillColor=#ffffc0;strokeColor=#ff0000;flipH=1;" parent="LhoEhV5BhQbCUo2uiRQP-103" vertex="1">
          <mxGeometry x="170" y="300" width="80" height="40" as="geometry" />
        </mxCell>
        <mxCell id="uwNvuSPqagO3H07fs6th-19" value="no" style="edgeStyle=orthogonalEdgeStyle;html=1;align=left;verticalAlign=bottom;endArrow=open;endSize=8;strokeColor=#ff0000;rounded=0;entryX=0.537;entryY=0.018;entryDx=0;entryDy=0;entryPerimeter=0;" parent="LhoEhV5BhQbCUo2uiRQP-103" source="uwNvuSPqagO3H07fs6th-18" target="uwNvuSPqagO3H07fs6th-68" edge="1">
          <mxGeometry relative="1" as="geometry">
            <mxPoint x="466.3800000000001" y="442" as="targetPoint" />
            <mxPoint as="offset" />
          </mxGeometry>
        </mxCell>
        <mxCell id="uwNvuSPqagO3H07fs6th-20" value="yes" style="edgeStyle=orthogonalEdgeStyle;html=1;align=left;verticalAlign=top;endArrow=open;endSize=8;strokeColor=#ff0000;rounded=0;exitX=0.061;exitY=0.498;exitDx=0;exitDy=0;exitPerimeter=0;" parent="LhoEhV5BhQbCUo2uiRQP-103" source="uwNvuSPqagO3H07fs6th-18" target="uwNvuSPqagO3H07fs6th-62" edge="1">
          <mxGeometry x="-0.7231" y="30" relative="1" as="geometry">
            <mxPoint x="335.8600000000001" y="522" as="targetPoint" />
            <Array as="points">
              <mxPoint x="310" y="320" />
            </Array>
            <mxPoint x="240" y="330" as="sourcePoint" />
            <mxPoint as="offset" />
          </mxGeometry>
        </mxCell>
        <mxCell id="uwNvuSPqagO3H07fs6th-25" value="executar rodada" style="rounded=1;whiteSpace=wrap;html=1;arcSize=40;fontColor=#000000;fillColor=#ffffc0;strokeColor=#ff0000;" parent="LhoEhV5BhQbCUo2uiRQP-103" vertex="1">
          <mxGeometry x="134.13" y="410" width="120" height="40" as="geometry" />
        </mxCell>
        <mxCell id="uwNvuSPqagO3H07fs6th-51" value="tisuname?" style="rhombus;whiteSpace=wrap;html=1;fontColor=#000000;fillColor=#ffffc0;strokeColor=#ff0000;" parent="LhoEhV5BhQbCUo2uiRQP-103" vertex="1">
          <mxGeometry x="85.85999999999999" y="100" width="80" height="40" as="geometry" />
        </mxCell>
        <mxCell id="uwNvuSPqagO3H07fs6th-52" value="no" style="edgeStyle=orthogonalEdgeStyle;html=1;align=left;verticalAlign=bottom;endArrow=open;endSize=8;strokeColor=#ff0000;rounded=0;exitX=0;exitY=0.5;exitDx=0;exitDy=0;" parent="LhoEhV5BhQbCUo2uiRQP-103" source="uwNvuSPqagO3H07fs6th-51" target="LhoEhV5BhQbCUo2uiRQP-108" edge="1">
          <mxGeometry x="0.7371" y="20" relative="1" as="geometry">
            <mxPoint x="446" y="112" as="targetPoint" />
            <Array as="points">
              <mxPoint x="62" y="120" />
            </Array>
            <mxPoint as="offset" />
          </mxGeometry>
        </mxCell>
        <mxCell id="uwNvuSPqagO3H07fs6th-53" value="yes" style="edgeStyle=orthogonalEdgeStyle;html=1;align=left;verticalAlign=top;endArrow=open;endSize=8;strokeColor=#ff0000;rounded=0;entryX=0.098;entryY=0.38;entryDx=0;entryDy=0;exitX=1;exitY=0.5;exitDx=0;exitDy=0;entryPerimeter=0;" parent="LhoEhV5BhQbCUo2uiRQP-103" source="uwNvuSPqagO3H07fs6th-51" target="uwNvuSPqagO3H07fs6th-62" edge="1">
          <mxGeometry x="-1" relative="1" as="geometry">
            <mxPoint x="306" y="192" as="targetPoint" />
            <mxPoint as="offset" />
          </mxGeometry>
        </mxCell>
        <mxCell id="uwNvuSPqagO3H07fs6th-65" style="edgeStyle=orthogonalEdgeStyle;rounded=0;orthogonalLoop=1;jettySize=auto;html=1;entryX=0.107;entryY=0.48;entryDx=0;entryDy=0;entryPerimeter=0;fillColor=#e51400;strokeColor=#B20000;" parent="LhoEhV5BhQbCUo2uiRQP-103" source="uwNvuSPqagO3H07fs6th-55" target="uwNvuSPqagO3H07fs6th-64" edge="1">
          <mxGeometry relative="1" as="geometry" />
        </mxCell>
        <mxCell id="uwNvuSPqagO3H07fs6th-55" value="declara derrota" style="rounded=1;whiteSpace=wrap;html=1;arcSize=40;fontColor=#000000;fillColor=#ffffc0;strokeColor=#ff0000;" parent="LhoEhV5BhQbCUo2uiRQP-103" vertex="1">
          <mxGeometry x="210" y="115" width="120" height="40" as="geometry" />
        </mxCell>
        <mxCell id="uwNvuSPqagO3H07fs6th-59" value="Afundou?" style="rhombus;whiteSpace=wrap;html=1;fontColor=#000000;fillColor=#ffffc0;strokeColor=#ff0000;" parent="LhoEhV5BhQbCUo2uiRQP-103" vertex="1">
          <mxGeometry x="260" y="350" width="80" height="40" as="geometry" />
        </mxCell>
        <mxCell id="uwNvuSPqagO3H07fs6th-60" value="no" style="edgeStyle=orthogonalEdgeStyle;html=1;align=left;verticalAlign=bottom;endArrow=open;endSize=8;strokeColor=#ff0000;rounded=0;entryX=0.997;entryY=0.395;entryDx=0;entryDy=0;entryPerimeter=0;" parent="LhoEhV5BhQbCUo2uiRQP-103" source="uwNvuSPqagO3H07fs6th-59" target="uwNvuSPqagO3H07fs6th-25" edge="1">
          <mxGeometry x="0.3605" y="-6" relative="1" as="geometry">
            <mxPoint x="416" y="427" as="targetPoint" />
            <Array as="points">
              <mxPoint x="300" y="426" />
            </Array>
            <mxPoint as="offset" />
          </mxGeometry>
        </mxCell>
        <mxCell id="uwNvuSPqagO3H07fs6th-61" value="yes" style="edgeStyle=orthogonalEdgeStyle;html=1;align=left;verticalAlign=top;endArrow=open;endSize=8;strokeColor=#ff0000;rounded=0;entryX=0.838;entryY=0.734;entryDx=0;entryDy=0;entryPerimeter=0;" parent="LhoEhV5BhQbCUo2uiRQP-103" source="uwNvuSPqagO3H07fs6th-59" target="uwNvuSPqagO3H07fs6th-62" edge="1">
          <mxGeometry x="-1" relative="1" as="geometry">
            <mxPoint x="276" y="507" as="targetPoint" />
            <Array as="points">
              <mxPoint x="354" y="370" />
            </Array>
          </mxGeometry>
        </mxCell>
        <mxCell id="uwNvuSPqagO3H07fs6th-62" value="" style="shape=line;html=1;strokeWidth=6;strokeColor=#ff0000;" parent="LhoEhV5BhQbCUo2uiRQP-103" vertex="1">
          <mxGeometry x="170" y="195" width="220" height="10" as="geometry" />
        </mxCell>
        <mxCell id="uwNvuSPqagO3H07fs6th-63" value="" style="edgeStyle=orthogonalEdgeStyle;html=1;verticalAlign=bottom;endArrow=open;endSize=8;strokeColor=#ff0000;rounded=0;exitX=0.453;exitY=0.3;exitDx=0;exitDy=0;exitPerimeter=0;" parent="LhoEhV5BhQbCUo2uiRQP-103" source="uwNvuSPqagO3H07fs6th-62" target="uwNvuSPqagO3H07fs6th-55" edge="1">
          <mxGeometry relative="1" as="geometry">
            <mxPoint x="290" y="275" as="targetPoint" />
          </mxGeometry>
        </mxCell>
        <mxCell id="uwNvuSPqagO3H07fs6th-64" value="" style="ellipse;html=1;shape=endState;fillColor=#000000;strokeColor=#ff0000;" parent="LhoEhV5BhQbCUo2uiRQP-103" vertex="1">
          <mxGeometry x="346" y="120" width="30" height="30" as="geometry" />
        </mxCell>
        <mxCell id="uwNvuSPqagO3H07fs6th-69" style="edgeStyle=orthogonalEdgeStyle;rounded=0;orthogonalLoop=1;jettySize=auto;html=1;entryX=0;entryY=0.5;entryDx=0;entryDy=0;fillColor=#e51400;strokeColor=#B20000;" parent="LhoEhV5BhQbCUo2uiRQP-103" source="uwNvuSPqagO3H07fs6th-68" target="uwNvuSPqagO3H07fs6th-59" edge="1">
          <mxGeometry relative="1" as="geometry" />
        </mxCell>
        <mxCell id="uwNvuSPqagO3H07fs6th-68" value="&amp;nbsp;averigua&lt;br&gt;&amp;nbsp; porto e estátuas" style="rounded=1;whiteSpace=wrap;html=1;arcSize=40;fontColor=#000000;fillColor=#ffffc0;strokeColor=#ff0000;" parent="LhoEhV5BhQbCUo2uiRQP-103" vertex="1">
          <mxGeometry x="14.239999999999995" y="350" width="120" height="40" as="geometry" />
        </mxCell>
        <mxCell id="DT0pR-Og9SzwXyTo6rHd-14" value="embaralha inunda" style="swimlane;whiteSpace=wrap" vertex="1" parent="1">
          <mxGeometry x="30" y="720" width="410" height="140" as="geometry" />
        </mxCell>
        <mxCell id="DT0pR-Og9SzwXyTo6rHd-61" value="" style="ellipse;html=1;shape=startState;fillColor=#000000;strokeColor=#ff0000;" vertex="1" parent="DT0pR-Og9SzwXyTo6rHd-14">
          <mxGeometry x="10" y="50" width="30" height="30" as="geometry" />
        </mxCell>
        <mxCell id="DT0pR-Og9SzwXyTo6rHd-62" value="" style="edgeStyle=orthogonalEdgeStyle;html=1;verticalAlign=bottom;endArrow=open;endSize=8;strokeColor=#ff0000;rounded=0;" edge="1" source="DT0pR-Og9SzwXyTo6rHd-61" parent="DT0pR-Og9SzwXyTo6rHd-14" target="DT0pR-Og9SzwXyTo6rHd-63">
          <mxGeometry relative="1" as="geometry">
            <mxPoint x="46" y="130" as="targetPoint" />
          </mxGeometry>
        </mxCell>
        <mxCell id="DT0pR-Og9SzwXyTo6rHd-67" style="edgeStyle=orthogonalEdgeStyle;rounded=0;orthogonalLoop=1;jettySize=auto;html=1;entryX=0;entryY=0.5;entryDx=0;entryDy=0;fillColor=#e51400;strokeColor=#B20000;" edge="1" parent="DT0pR-Og9SzwXyTo6rHd-14" source="DT0pR-Og9SzwXyTo6rHd-63" target="DT0pR-Og9SzwXyTo6rHd-73">
          <mxGeometry relative="1" as="geometry" />
        </mxCell>
        <mxCell id="DT0pR-Og9SzwXyTo6rHd-63" value="BaralhoInunda:&lt;br&gt;[na caixa]" style="html=1;whiteSpace=wrap;fontColor=#000000;fillColor=#D4E1F5;strokeColor=#00FFFF;" vertex="1" parent="DT0pR-Og9SzwXyTo6rHd-14">
          <mxGeometry x="60" y="40" width="110" height="50" as="geometry" />
        </mxCell>
        <mxCell id="DT0pR-Og9SzwXyTo6rHd-66" value="" style="ellipse;html=1;shape=endState;fillColor=#000000;strokeColor=#ff0000;" vertex="1" parent="DT0pR-Og9SzwXyTo6rHd-14">
          <mxGeometry x="370" y="50" width="30" height="30" as="geometry" />
        </mxCell>
        <mxCell id="DT0pR-Og9SzwXyTo6rHd-76" style="edgeStyle=orthogonalEdgeStyle;rounded=0;orthogonalLoop=1;jettySize=auto;html=1;entryX=0;entryY=0.5;entryDx=0;entryDy=0;fillColor=#e51400;strokeColor=#B20000;" edge="1" parent="DT0pR-Og9SzwXyTo6rHd-14" source="DT0pR-Og9SzwXyTo6rHd-73" target="DT0pR-Og9SzwXyTo6rHd-74">
          <mxGeometry relative="1" as="geometry" />
        </mxCell>
        <mxCell id="DT0pR-Og9SzwXyTo6rHd-73" value="embaralha" style="fillColor=#ffffc0;strokeColor=#ff0000;fontColor=#000000;rounded=1;arcSize=40;" vertex="1" parent="DT0pR-Og9SzwXyTo6rHd-14">
          <mxGeometry x="140" y="106" width="110" height="26" as="geometry" />
        </mxCell>
        <mxCell id="DT0pR-Og9SzwXyTo6rHd-75" value="" style="edgeStyle=orthogonalEdgeStyle;rounded=0;orthogonalLoop=1;jettySize=auto;html=1;fillColor=#e51400;strokeColor=#B20000;" edge="1" parent="DT0pR-Og9SzwXyTo6rHd-14" source="DT0pR-Og9SzwXyTo6rHd-74" target="DT0pR-Og9SzwXyTo6rHd-66">
          <mxGeometry relative="1" as="geometry" />
        </mxCell>
        <mxCell id="DT0pR-Og9SzwXyTo6rHd-74" value="BaralhoInunda:&lt;br&gt;[embaralhado]" style="html=1;whiteSpace=wrap;fontColor=#000000;fillColor=#D4E1F5;strokeColor=#00FFFF;" vertex="1" parent="DT0pR-Og9SzwXyTo6rHd-14">
          <mxGeometry x="230" y="40" width="110" height="50" as="geometry" />
        </mxCell>
        <mxCell id="DT0pR-Og9SzwXyTo6rHd-77" value="posiciona terrenos" style="swimlane;whiteSpace=wrap" vertex="1" parent="1">
          <mxGeometry x="30" y="870" width="410" height="140" as="geometry" />
        </mxCell>
        <mxCell id="DT0pR-Og9SzwXyTo6rHd-78" value="" style="ellipse;html=1;shape=startState;fillColor=#000000;strokeColor=#ff0000;" vertex="1" parent="DT0pR-Og9SzwXyTo6rHd-77">
          <mxGeometry x="10" y="50" width="30" height="30" as="geometry" />
        </mxCell>
        <mxCell id="DT0pR-Og9SzwXyTo6rHd-79" value="" style="edgeStyle=orthogonalEdgeStyle;html=1;verticalAlign=bottom;endArrow=open;endSize=8;strokeColor=#ff0000;rounded=0;" edge="1" parent="DT0pR-Og9SzwXyTo6rHd-77" source="DT0pR-Og9SzwXyTo6rHd-78" target="DT0pR-Og9SzwXyTo6rHd-81">
          <mxGeometry relative="1" as="geometry">
            <mxPoint x="46" y="130" as="targetPoint" />
          </mxGeometry>
        </mxCell>
        <mxCell id="DT0pR-Og9SzwXyTo6rHd-80" style="edgeStyle=orthogonalEdgeStyle;rounded=0;orthogonalLoop=1;jettySize=auto;html=1;entryX=0;entryY=0.5;entryDx=0;entryDy=0;fillColor=#e51400;strokeColor=#B20000;" edge="1" parent="DT0pR-Og9SzwXyTo6rHd-77" source="DT0pR-Og9SzwXyTo6rHd-81" target="DT0pR-Og9SzwXyTo6rHd-84">
          <mxGeometry relative="1" as="geometry" />
        </mxCell>
        <mxCell id="DT0pR-Og9SzwXyTo6rHd-81" value="Terreno:&lt;br&gt;[na caixa]" style="html=1;whiteSpace=wrap;fontColor=#000000;fillColor=#D4E1F5;strokeColor=#00FFFF;" vertex="1" parent="DT0pR-Og9SzwXyTo6rHd-77">
          <mxGeometry x="60" y="40" width="110" height="50" as="geometry" />
        </mxCell>
        <mxCell id="DT0pR-Og9SzwXyTo6rHd-82" value="" style="ellipse;html=1;shape=endState;fillColor=#000000;strokeColor=#ff0000;" vertex="1" parent="DT0pR-Og9SzwXyTo6rHd-77">
          <mxGeometry x="370" y="50" width="30" height="30" as="geometry" />
        </mxCell>
        <mxCell id="DT0pR-Og9SzwXyTo6rHd-83" style="edgeStyle=orthogonalEdgeStyle;rounded=0;orthogonalLoop=1;jettySize=auto;html=1;entryX=0;entryY=0.5;entryDx=0;entryDy=0;fillColor=#e51400;strokeColor=#B20000;" edge="1" parent="DT0pR-Og9SzwXyTo6rHd-77" source="DT0pR-Og9SzwXyTo6rHd-84" target="DT0pR-Og9SzwXyTo6rHd-86">
          <mxGeometry relative="1" as="geometry" />
        </mxCell>
        <mxCell id="DT0pR-Og9SzwXyTo6rHd-84" value="posiciona" style="fillColor=#ffffc0;strokeColor=#ff0000;fontColor=#000000;rounded=1;arcSize=40;" vertex="1" parent="DT0pR-Og9SzwXyTo6rHd-77">
          <mxGeometry x="140" y="106" width="110" height="26" as="geometry" />
        </mxCell>
        <mxCell id="DT0pR-Og9SzwXyTo6rHd-85" value="" style="edgeStyle=orthogonalEdgeStyle;rounded=0;orthogonalLoop=1;jettySize=auto;html=1;fillColor=#e51400;strokeColor=#B20000;" edge="1" parent="DT0pR-Og9SzwXyTo6rHd-77" source="DT0pR-Og9SzwXyTo6rHd-86" target="DT0pR-Og9SzwXyTo6rHd-82">
          <mxGeometry relative="1" as="geometry" />
        </mxCell>
        <mxCell id="DT0pR-Og9SzwXyTo6rHd-86" value="Terreno:&lt;br&gt;[posicionado]" style="html=1;whiteSpace=wrap;fontColor=#000000;fillColor=#D4E1F5;strokeColor=#00FFFF;" vertex="1" parent="DT0pR-Og9SzwXyTo6rHd-77">
          <mxGeometry x="230" y="40" width="110" height="50" as="geometry" />
        </mxCell>
        <mxCell id="DT0pR-Og9SzwXyTo6rHd-87" value="embaralha papeis" style="swimlane;whiteSpace=wrap" vertex="1" parent="1">
          <mxGeometry x="30" y="1169" width="410" height="140" as="geometry" />
        </mxCell>
        <mxCell id="DT0pR-Og9SzwXyTo6rHd-88" value="" style="ellipse;html=1;shape=startState;fillColor=#000000;strokeColor=#ff0000;" vertex="1" parent="DT0pR-Og9SzwXyTo6rHd-87">
          <mxGeometry x="10" y="50" width="30" height="30" as="geometry" />
        </mxCell>
        <mxCell id="DT0pR-Og9SzwXyTo6rHd-89" value="" style="edgeStyle=orthogonalEdgeStyle;html=1;verticalAlign=bottom;endArrow=open;endSize=8;strokeColor=#ff0000;rounded=0;" edge="1" parent="DT0pR-Og9SzwXyTo6rHd-87" source="DT0pR-Og9SzwXyTo6rHd-88" target="DT0pR-Og9SzwXyTo6rHd-91">
          <mxGeometry relative="1" as="geometry">
            <mxPoint x="46" y="130" as="targetPoint" />
          </mxGeometry>
        </mxCell>
        <mxCell id="DT0pR-Og9SzwXyTo6rHd-90" style="edgeStyle=orthogonalEdgeStyle;rounded=0;orthogonalLoop=1;jettySize=auto;html=1;entryX=0;entryY=0.5;entryDx=0;entryDy=0;fillColor=#e51400;strokeColor=#B20000;" edge="1" parent="DT0pR-Og9SzwXyTo6rHd-87" source="DT0pR-Og9SzwXyTo6rHd-91" target="DT0pR-Og9SzwXyTo6rHd-94">
          <mxGeometry relative="1" as="geometry" />
        </mxCell>
        <mxCell id="DT0pR-Og9SzwXyTo6rHd-91" value="BaralhoPapeis:&lt;br&gt;[na caixa]" style="html=1;whiteSpace=wrap;fontColor=#000000;fillColor=#D4E1F5;strokeColor=#00FFFF;" vertex="1" parent="DT0pR-Og9SzwXyTo6rHd-87">
          <mxGeometry x="60" y="40" width="110" height="50" as="geometry" />
        </mxCell>
        <mxCell id="DT0pR-Og9SzwXyTo6rHd-92" value="" style="ellipse;html=1;shape=endState;fillColor=#000000;strokeColor=#ff0000;" vertex="1" parent="DT0pR-Og9SzwXyTo6rHd-87">
          <mxGeometry x="370" y="50" width="30" height="30" as="geometry" />
        </mxCell>
        <mxCell id="DT0pR-Og9SzwXyTo6rHd-93" style="edgeStyle=orthogonalEdgeStyle;rounded=0;orthogonalLoop=1;jettySize=auto;html=1;entryX=0;entryY=0.5;entryDx=0;entryDy=0;fillColor=#e51400;strokeColor=#B20000;" edge="1" parent="DT0pR-Og9SzwXyTo6rHd-87" source="DT0pR-Og9SzwXyTo6rHd-94" target="DT0pR-Og9SzwXyTo6rHd-96">
          <mxGeometry relative="1" as="geometry" />
        </mxCell>
        <mxCell id="DT0pR-Og9SzwXyTo6rHd-94" value="embaralha" style="fillColor=#ffffc0;strokeColor=#ff0000;fontColor=#000000;rounded=1;arcSize=40;" vertex="1" parent="DT0pR-Og9SzwXyTo6rHd-87">
          <mxGeometry x="140" y="106" width="110" height="26" as="geometry" />
        </mxCell>
        <mxCell id="DT0pR-Og9SzwXyTo6rHd-95" value="" style="edgeStyle=orthogonalEdgeStyle;rounded=0;orthogonalLoop=1;jettySize=auto;html=1;fillColor=#e51400;strokeColor=#B20000;" edge="1" parent="DT0pR-Og9SzwXyTo6rHd-87" source="DT0pR-Og9SzwXyTo6rHd-96" target="DT0pR-Og9SzwXyTo6rHd-92">
          <mxGeometry relative="1" as="geometry" />
        </mxCell>
        <mxCell id="DT0pR-Og9SzwXyTo6rHd-96" value="BaralhoPapeis:&lt;br&gt;[embaralhado]" style="html=1;whiteSpace=wrap;fontColor=#000000;fillColor=#D4E1F5;strokeColor=#00FFFF;" vertex="1" parent="DT0pR-Og9SzwXyTo6rHd-87">
          <mxGeometry x="230" y="40" width="110" height="50" as="geometry" />
        </mxCell>
        <mxCell id="DT0pR-Og9SzwXyTo6rHd-97" value="distribui papeis" style="swimlane;whiteSpace=wrap" vertex="1" parent="1">
          <mxGeometry x="30" y="1020" width="410" height="140" as="geometry" />
        </mxCell>
        <mxCell id="DT0pR-Og9SzwXyTo6rHd-98" value="" style="ellipse;html=1;shape=startState;fillColor=#000000;strokeColor=#ff0000;" vertex="1" parent="DT0pR-Og9SzwXyTo6rHd-97">
          <mxGeometry x="10" y="50" width="30" height="30" as="geometry" />
        </mxCell>
        <mxCell id="DT0pR-Og9SzwXyTo6rHd-99" value="" style="edgeStyle=orthogonalEdgeStyle;html=1;verticalAlign=bottom;endArrow=open;endSize=8;strokeColor=#ff0000;rounded=0;" edge="1" parent="DT0pR-Og9SzwXyTo6rHd-97" source="DT0pR-Og9SzwXyTo6rHd-98" target="DT0pR-Og9SzwXyTo6rHd-101">
          <mxGeometry relative="1" as="geometry">
            <mxPoint x="46" y="130" as="targetPoint" />
          </mxGeometry>
        </mxCell>
        <mxCell id="DT0pR-Og9SzwXyTo6rHd-100" style="edgeStyle=orthogonalEdgeStyle;rounded=0;orthogonalLoop=1;jettySize=auto;html=1;entryX=0;entryY=0.5;entryDx=0;entryDy=0;fillColor=#e51400;strokeColor=#B20000;" edge="1" parent="DT0pR-Og9SzwXyTo6rHd-97" source="DT0pR-Og9SzwXyTo6rHd-101" target="DT0pR-Og9SzwXyTo6rHd-104">
          <mxGeometry relative="1" as="geometry" />
        </mxCell>
        <mxCell id="DT0pR-Og9SzwXyTo6rHd-101" value="Papel:&lt;br&gt;[no baralho]" style="html=1;whiteSpace=wrap;fontColor=#000000;fillColor=#D4E1F5;strokeColor=#00FFFF;" vertex="1" parent="DT0pR-Og9SzwXyTo6rHd-97">
          <mxGeometry x="60" y="40" width="110" height="50" as="geometry" />
        </mxCell>
        <mxCell id="DT0pR-Og9SzwXyTo6rHd-102" value="" style="ellipse;html=1;shape=endState;fillColor=#000000;strokeColor=#ff0000;" vertex="1" parent="DT0pR-Og9SzwXyTo6rHd-97">
          <mxGeometry x="370" y="50" width="30" height="30" as="geometry" />
        </mxCell>
        <mxCell id="DT0pR-Og9SzwXyTo6rHd-103" style="edgeStyle=orthogonalEdgeStyle;rounded=0;orthogonalLoop=1;jettySize=auto;html=1;entryX=0;entryY=0.5;entryDx=0;entryDy=0;fillColor=#e51400;strokeColor=#B20000;" edge="1" parent="DT0pR-Og9SzwXyTo6rHd-97" source="DT0pR-Og9SzwXyTo6rHd-104" target="DT0pR-Og9SzwXyTo6rHd-106">
          <mxGeometry relative="1" as="geometry" />
        </mxCell>
        <mxCell id="DT0pR-Og9SzwXyTo6rHd-104" value="posiciona" style="fillColor=#ffffc0;strokeColor=#ff0000;fontColor=#000000;rounded=1;arcSize=40;" vertex="1" parent="DT0pR-Og9SzwXyTo6rHd-97">
          <mxGeometry x="140" y="106" width="110" height="26" as="geometry" />
        </mxCell>
        <mxCell id="DT0pR-Og9SzwXyTo6rHd-105" value="" style="edgeStyle=orthogonalEdgeStyle;rounded=0;orthogonalLoop=1;jettySize=auto;html=1;fillColor=#e51400;strokeColor=#B20000;" edge="1" parent="DT0pR-Og9SzwXyTo6rHd-97" source="DT0pR-Og9SzwXyTo6rHd-106" target="DT0pR-Og9SzwXyTo6rHd-102">
          <mxGeometry relative="1" as="geometry" />
        </mxCell>
        <mxCell id="DT0pR-Og9SzwXyTo6rHd-106" value="Papel:&lt;br&gt;[no jogador]" style="html=1;whiteSpace=wrap;fontColor=#000000;fillColor=#D4E1F5;strokeColor=#00FFFF;" vertex="1" parent="DT0pR-Og9SzwXyTo6rHd-97">
          <mxGeometry x="230" y="40" width="110" height="50" as="geometry" />
        </mxCell>
        <mxCell id="DT0pR-Og9SzwXyTo6rHd-107" value="selecionar aventureiro" style="swimlane;whiteSpace=wrap" vertex="1" parent="1">
          <mxGeometry x="442.25" y="720" width="410" height="140" as="geometry" />
        </mxCell>
        <mxCell id="DT0pR-Og9SzwXyTo6rHd-108" value="" style="ellipse;html=1;shape=startState;fillColor=#000000;strokeColor=#ff0000;" vertex="1" parent="DT0pR-Og9SzwXyTo6rHd-107">
          <mxGeometry x="10" y="50" width="30" height="30" as="geometry" />
        </mxCell>
        <mxCell id="DT0pR-Og9SzwXyTo6rHd-109" value="" style="edgeStyle=orthogonalEdgeStyle;html=1;verticalAlign=bottom;endArrow=open;endSize=8;strokeColor=#ff0000;rounded=0;" edge="1" parent="DT0pR-Og9SzwXyTo6rHd-107" source="DT0pR-Og9SzwXyTo6rHd-108" target="DT0pR-Og9SzwXyTo6rHd-111">
          <mxGeometry relative="1" as="geometry">
            <mxPoint x="46" y="130" as="targetPoint" />
          </mxGeometry>
        </mxCell>
        <mxCell id="DT0pR-Og9SzwXyTo6rHd-110" style="edgeStyle=orthogonalEdgeStyle;rounded=0;orthogonalLoop=1;jettySize=auto;html=1;entryX=0;entryY=0.5;entryDx=0;entryDy=0;fillColor=#e51400;strokeColor=#B20000;" edge="1" parent="DT0pR-Og9SzwXyTo6rHd-107" source="DT0pR-Og9SzwXyTo6rHd-111" target="DT0pR-Og9SzwXyTo6rHd-114">
          <mxGeometry relative="1" as="geometry" />
        </mxCell>
        <mxCell id="DT0pR-Og9SzwXyTo6rHd-111" value="Aventureiro:&lt;br&gt;[esperando]" style="html=1;whiteSpace=wrap;fontColor=#000000;fillColor=#D4E1F5;strokeColor=#00FFFF;" vertex="1" parent="DT0pR-Og9SzwXyTo6rHd-107">
          <mxGeometry x="60" y="40" width="110" height="50" as="geometry" />
        </mxCell>
        <mxCell id="DT0pR-Og9SzwXyTo6rHd-112" value="" style="ellipse;html=1;shape=endState;fillColor=#000000;strokeColor=#ff0000;" vertex="1" parent="DT0pR-Og9SzwXyTo6rHd-107">
          <mxGeometry x="370" y="50" width="30" height="30" as="geometry" />
        </mxCell>
        <mxCell id="DT0pR-Og9SzwXyTo6rHd-113" style="edgeStyle=orthogonalEdgeStyle;rounded=0;orthogonalLoop=1;jettySize=auto;html=1;entryX=0;entryY=0.5;entryDx=0;entryDy=0;fillColor=#e51400;strokeColor=#B20000;" edge="1" parent="DT0pR-Og9SzwXyTo6rHd-107" source="DT0pR-Og9SzwXyTo6rHd-114" target="DT0pR-Og9SzwXyTo6rHd-116">
          <mxGeometry relative="1" as="geometry" />
        </mxCell>
        <mxCell id="DT0pR-Og9SzwXyTo6rHd-114" value="jogar" style="fillColor=#ffffc0;strokeColor=#ff0000;fontColor=#000000;rounded=1;arcSize=40;" vertex="1" parent="DT0pR-Og9SzwXyTo6rHd-107">
          <mxGeometry x="140" y="106" width="110" height="26" as="geometry" />
        </mxCell>
        <mxCell id="DT0pR-Og9SzwXyTo6rHd-115" value="" style="edgeStyle=orthogonalEdgeStyle;rounded=0;orthogonalLoop=1;jettySize=auto;html=1;fillColor=#e51400;strokeColor=#B20000;" edge="1" parent="DT0pR-Og9SzwXyTo6rHd-107" source="DT0pR-Og9SzwXyTo6rHd-116" target="DT0pR-Og9SzwXyTo6rHd-112">
          <mxGeometry relative="1" as="geometry" />
        </mxCell>
        <mxCell id="DT0pR-Og9SzwXyTo6rHd-116" value="Aventureiro:&lt;br&gt;[jogando]" style="html=1;whiteSpace=wrap;fontColor=#000000;fillColor=#D4E1F5;strokeColor=#00FFFF;" vertex="1" parent="DT0pR-Og9SzwXyTo6rHd-107">
          <mxGeometry x="230" y="40" width="110" height="50" as="geometry" />
        </mxCell>
      </root>
    </mxGraphModel>
  </diagram>
</mxfile>
